ISim log file
Running: C:\Users\Taras\Desktop\MTR_Lab4\MTR_Lab4\MTR_Lab4\MTR_sw2_MTR_sw2_sch_tb_isim_beh.exe -intstyle ise -gui -tclbatch isim.cmd -wdb C:/Users/Taras/Desktop/MTR_Lab4/MTR_Lab4/MTR_Lab4/MTR_sw2_MTR_sw2_sch_tb_isim_beh.wdb 
ISim P.20131013 (signature 0x7708f090)
This is a Full version of ISim.
Time resolution is 1 ps
# onerror resume
# wave add /
# run 1000 ns
Simulator is doing circuit initialization process.
at 0 ps, Instance /mtr_sw2_mtr_sw2_sch_tb/UUT/XLXI_3/ : Warning: There is an 'U'|'X'|'W'|'Z'|'-' in an arithmetic operand, the result will be 'X'(es).
at 0 ps, Instance /mtr_sw2_mtr_sw2_sch_tb/UUT/XLXI_3/ : Warning: CONV_INTEGER: There is an 'U'|'X'|'W'|'Z'|'-' in an arithmetic operand, and it has been converted to 0.
at 0 ps, Instance /mtr_sw2_mtr_sw2_sch_tb/UUT/XLXI_4/ : Warning: CONV_INTEGER: There is an 'U'|'X'|'W'|'Z'|'-' in an arithmetic operand, and it has been converted to 0.
at 0 ps, Instance /mtr_sw2_mtr_sw2_sch_tb/UUT/XLXI_18/ : Warning: CONV_INTEGER: There is an 'U'|'X'|'W'|'Z'|'-' in an arithmetic operand, and it has been converted to 0.
Finished circuit initialization process.
at 0 ps, Instance /mtr_sw2_mtr_sw2_sch_tb/UUT/XLXI_3/ : Warning: CONV_INTEGER: There is an 'U'|'X'|'W'|'Z'|'-' in an arithmetic operand, and it has been converted to 0.
at 0 ps, Instance /mtr_sw2_mtr_sw2_sch_tb/UUT/XLXI_4/ : Warning: CONV_INTEGER: There is an 'U'|'X'|'W'|'Z'|'-' in an arithmetic operand, and it has been converted to 0.
at 0 ps, Instance /mtr_sw2_mtr_sw2_sch_tb/UUT/XLXI_18/ : Warning: CONV_INTEGER: There is an 'U'|'X'|'W'|'Z'|'-' in an arithmetic operand, and it has been converted to 0.
# run all
Stopped at time : 8499080 ns : File "C:/Users/Taras/Desktop/MTR_Lab4/MTR_Lab4/MTR_Lab4/MTR_tb1.vhd" Line 69
