<?xml version="1.0" encoding="UTF-8"?>
<drawing version="7">
    <attr value="virtex4" name="DeviceFamilyName">
        <trait delete="all:0" />
        <trait editname="all:0" />
        <trait edittrait="all:0" />
    </attr>
    <netlist>
        <signal name="mtr_b(7:0)" />
        <signal name="mtr_c(7:0)" />
        <signal name="XLXN_5(7:0)" />
        <signal name="XLXN_6(7:0)" />
        <signal name="mtr_a(7:0)" />
        <signal name="mtr_mul1(15:0)" />
        <signal name="XLXN_9(15:0)" />
        <signal name="XLXN_12(7:0)" />
        <signal name="XLXN_16(15:0)" />
        <signal name="CE" />
        <signal name="mtr_add(15:0)" />
        <signal name="XLXN_21(15:0)" />
        <signal name="XLXN_22(15:0)" />
        <signal name="CLR" />
        <signal name="XLXN_37" />
        <signal name="XLXN_38(15:0)" />
        <signal name="XLXN_41(31:0)" />
        <signal name="mtr_res(31:0)" />
        <signal name="ONE" />
        <signal name="C" />
        <signal name="XLXN_50(7:0)" />
        <port polarity="Input" name="mtr_b(7:0)" />
        <port polarity="Input" name="mtr_c(7:0)" />
        <port polarity="Input" name="mtr_a(7:0)" />
        <port polarity="Output" name="mtr_mul1(15:0)" />
        <port polarity="Input" name="CE" />
        <port polarity="Output" name="mtr_add(15:0)" />
        <port polarity="Input" name="CLR" />
        <port polarity="Output" name="mtr_res(31:0)" />
        <port polarity="Output" name="ONE" />
        <port polarity="Input" name="C" />
        <blockdef name="fd8ce">
            <timestamp>2000-1-1T10:10:10</timestamp>
            <line x2="64" y1="-128" y2="-128" x1="0" />
            <line x2="64" y1="-192" y2="-192" x1="0" />
            <line x2="64" y1="-32" y2="-32" x1="0" />
            <line x2="64" y1="-256" y2="-256" x1="0" />
            <line x2="320" y1="-256" y2="-256" x1="384" />
            <line x2="64" y1="-32" y2="-32" x1="192" />
            <line x2="192" y1="-64" y2="-32" x1="192" />
            <line x2="64" y1="-128" y2="-144" x1="80" />
            <line x2="80" y1="-112" y2="-128" x1="64" />
            <rect width="64" x="320" y="-268" height="24" />
            <rect width="64" x="0" y="-268" height="24" />
            <rect width="256" x="64" y="-320" height="256" />
        </blockdef>
        <blockdef name="MTR_MULT8">
            <timestamp>2016-11-20T19:17:52</timestamp>
            <rect width="512" x="32" y="32" height="384" />
            <line x2="32" y1="80" y2="80" style="linewidth:W" x1="0" />
            <line x2="32" y1="144" y2="144" style="linewidth:W" x1="0" />
            <line x2="32" y1="240" y2="240" x1="0" />
            <line x2="32" y1="304" y2="304" x1="0" />
            <line x2="544" y1="80" y2="80" style="linewidth:W" x1="576" />
        </blockdef>
        <blockdef name="fd16ce">
            <timestamp>2000-1-1T10:10:10</timestamp>
            <line x2="64" y1="-128" y2="-128" x1="0" />
            <line x2="64" y1="-192" y2="-192" x1="0" />
            <line x2="64" y1="-32" y2="-32" x1="0" />
            <line x2="64" y1="-256" y2="-256" x1="0" />
            <line x2="320" y1="-256" y2="-256" x1="384" />
            <line x2="64" y1="-128" y2="-144" x1="80" />
            <line x2="80" y1="-112" y2="-128" x1="64" />
            <rect width="64" x="320" y="-268" height="24" />
            <rect width="64" x="0" y="-268" height="24" />
            <line x2="64" y1="-32" y2="-32" x1="192" />
            <line x2="192" y1="-64" y2="-32" x1="192" />
            <rect width="256" x="64" y="-320" height="256" />
        </blockdef>
        <blockdef name="add16">
            <timestamp>2000-1-1T10:10:10</timestamp>
            <line x2="384" y1="-128" y2="-128" x1="448" />
            <line x2="384" y1="-64" y2="-64" x1="448" />
            <line x2="384" y1="-64" y2="-64" x1="240" />
            <line x2="240" y1="-124" y2="-64" x1="240" />
            <rect width="64" x="0" y="-204" height="24" />
            <rect width="64" x="0" y="-332" height="24" />
            <line x2="64" y1="-320" y2="-320" x1="0" />
            <line x2="64" y1="-192" y2="-192" x1="0" />
            <line x2="384" y1="-256" y2="-256" x1="448" />
            <rect width="64" x="384" y="-268" height="24" />
            <line x2="64" y1="-448" y2="-448" x1="0" />
            <line x2="64" y1="-448" y2="-448" x1="128" />
            <line x2="128" y1="-416" y2="-448" x1="128" />
            <line x2="64" y1="-288" y2="-432" x1="64" />
            <line x2="64" y1="-256" y2="-288" x1="128" />
            <line x2="128" y1="-224" y2="-256" x1="64" />
            <line x2="64" y1="-80" y2="-224" x1="64" />
            <line x2="64" y1="-160" y2="-80" x1="384" />
            <line x2="384" y1="-336" y2="-160" x1="384" />
            <line x2="384" y1="-352" y2="-336" x1="384" />
            <line x2="384" y1="-432" y2="-352" x1="64" />
            <line x2="336" y1="-128" y2="-148" x1="336" />
            <line x2="336" y1="-128" y2="-128" x1="384" />
        </blockdef>
        <blockdef name="constant">
            <timestamp>2006-1-1T10:10:10</timestamp>
            <rect width="112" x="0" y="0" height="64" />
            <line x2="112" y1="32" y2="32" x1="144" />
        </blockdef>
        <blockdef name="MTR_MULT16">
            <timestamp>2016-11-20T18:10:43</timestamp>
            <rect width="512" x="32" y="32" height="384" />
            <line x2="32" y1="80" y2="80" style="linewidth:W" x1="0" />
            <line x2="32" y1="144" y2="144" style="linewidth:W" x1="0" />
            <line x2="32" y1="240" y2="240" x1="0" />
            <line x2="544" y1="80" y2="80" style="linewidth:W" x1="576" />
        </blockdef>
        <blockdef name="gnd">
            <timestamp>2000-1-1T10:10:10</timestamp>
            <line x2="64" y1="-64" y2="-96" x1="64" />
            <line x2="52" y1="-48" y2="-48" x1="76" />
            <line x2="60" y1="-32" y2="-32" x1="68" />
            <line x2="40" y1="-64" y2="-64" x1="88" />
            <line x2="64" y1="-64" y2="-80" x1="64" />
            <line x2="64" y1="-128" y2="-96" x1="64" />
        </blockdef>
        <blockdef name="MTR_REG">
            <timestamp>2016-11-20T18:34:39</timestamp>
            <rect width="224" x="32" y="32" height="384" />
            <line x2="32" y1="80" y2="80" style="linewidth:W" x1="0" />
            <line x2="32" y1="208" y2="208" x1="0" />
            <line x2="32" y1="240" y2="240" x1="0" />
            <line x2="32" y1="304" y2="304" x1="0" />
            <line x2="256" y1="80" y2="80" style="linewidth:W" x1="288" />
        </blockdef>
        <block symbolname="fd8ce" name="XLXI_2">
            <blockpin signalname="C" name="C" />
            <blockpin signalname="CE" name="CE" />
            <blockpin signalname="CLR" name="CLR" />
            <blockpin signalname="mtr_c(7:0)" name="D(7:0)" />
            <blockpin signalname="XLXN_6(7:0)" name="Q(7:0)" />
        </block>
        <block symbolname="fd8ce" name="XLXI_6">
            <blockpin signalname="C" name="C" />
            <blockpin signalname="CE" name="CE" />
            <blockpin signalname="CLR" name="CLR" />
            <blockpin signalname="mtr_a(7:0)" name="D(7:0)" />
            <blockpin signalname="XLXN_12(7:0)" name="Q(7:0)" />
        </block>
        <block symbolname="fd16ce" name="XLXI_7">
            <blockpin signalname="C" name="C" />
            <blockpin signalname="CE" name="CE" />
            <blockpin signalname="CLR" name="CLR" />
            <blockpin signalname="mtr_mul1(15:0)" name="D(15:0)" />
            <blockpin signalname="XLXN_9(15:0)" name="Q(15:0)" />
        </block>
        <block symbolname="add16" name="XLXI_8">
            <blockpin signalname="XLXN_9(15:0)" name="A(15:0)" />
            <blockpin signalname="XLXN_16(15:0)" name="B(15:0)" />
            <blockpin signalname="XLXN_37" name="CI" />
            <blockpin signalname="ONE" name="CO" />
            <blockpin name="OFL" />
            <blockpin signalname="mtr_add(15:0)" name="S(15:0)" />
        </block>
        <block symbolname="fd16ce" name="XLXI_11">
            <blockpin signalname="C" name="C" />
            <blockpin signalname="CE" name="CE" />
            <blockpin signalname="CLR" name="CLR" />
            <blockpin signalname="XLXN_38(15:0)" name="D(15:0)" />
            <blockpin signalname="XLXN_16(15:0)" name="Q(15:0)" />
        </block>
        <block symbolname="fd16ce" name="XLXI_12">
            <blockpin signalname="C" name="C" />
            <blockpin signalname="CE" name="CE" />
            <blockpin signalname="CLR" name="CLR" />
            <blockpin signalname="mtr_add(15:0)" name="D(15:0)" />
            <blockpin signalname="XLXN_21(15:0)" name="Q(15:0)" />
        </block>
        <block symbolname="MTR_MULT16" name="XLXI_13">
            <blockpin signalname="XLXN_21(15:0)" name="a(15:0)" />
            <blockpin signalname="XLXN_22(15:0)" name="b(15:0)" />
            <blockpin signalname="C" name="clk" />
            <blockpin signalname="XLXN_41(31:0)" name="p(31:0)" />
        </block>
        <block symbolname="constant" name="XLXI_14">
            <attr value="3" name="CValue">
                <trait delete="all:1 sym:0" />
                <trait editname="all:1 sch:0" />
                <trait valuetype="BitVector 32 Hexadecimal" />
            </attr>
            <blockpin signalname="XLXN_22(15:0)" name="O" />
        </block>
        <block symbolname="gnd" name="XLXI_17">
            <blockpin signalname="XLXN_37" name="G" />
        </block>
        <block symbolname="MTR_REG" name="XLXI_18">
            <blockpin signalname="XLXN_41(31:0)" name="d(31:0)" />
            <blockpin signalname="C" name="clk" />
            <blockpin signalname="CE" name="ce" />
            <blockpin name="sclr" />
            <blockpin signalname="mtr_res(31:0)" name="q(31:0)" />
        </block>
        <block symbolname="fd8ce" name="XLXI_1">
            <blockpin signalname="C" name="C" />
            <blockpin signalname="CE" name="CE" />
            <blockpin signalname="CLR" name="CLR" />
            <blockpin signalname="mtr_b(7:0)" name="D(7:0)" />
            <blockpin signalname="XLXN_5(7:0)" name="Q(7:0)" />
        </block>
        <block symbolname="MTR_MULT8" name="XLXI_20">
            <blockpin signalname="XLXN_5(7:0)" name="a(7:0)" />
            <blockpin signalname="XLXN_6(7:0)" name="b(7:0)" />
            <blockpin signalname="C" name="clk" />
            <blockpin signalname="CE" name="ce" />
            <blockpin signalname="mtr_mul1(15:0)" name="p(15:0)" />
        </block>
        <block symbolname="MTR_MULT8" name="XLXI_24">
            <blockpin signalname="XLXN_12(7:0)" name="a(7:0)" />
            <blockpin signalname="XLXN_50(7:0)" name="b(7:0)" />
            <blockpin signalname="C" name="clk" />
            <blockpin signalname="CE" name="ce" />
            <blockpin signalname="XLXN_38(15:0)" name="p(15:0)" />
        </block>
        <block symbolname="constant" name="XLXI_25">
            <attr value="1" name="CValue">
                <trait delete="all:1 sym:0" />
                <trait editname="all:1 sch:0" />
                <trait valuetype="BitVector 32 Hexadecimal" />
            </attr>
            <blockpin signalname="XLXN_50(7:0)" name="O" />
        </block>
    </netlist>
    <sheet sheetnum="1" width="5440" height="3520">
        <instance x="400" y="992" name="XLXI_2" orien="R0" />
        <branch name="mtr_b(7:0)">
            <wire x2="400" y1="256" y2="256" x1="224" />
        </branch>
        <branch name="mtr_c(7:0)">
            <wire x2="400" y1="736" y2="736" x1="240" />
        </branch>
        <iomarker fontsize="28" x="224" y="256" name="mtr_b(7:0)" orien="R180" />
        <iomarker fontsize="28" x="240" y="736" name="mtr_c(7:0)" orien="R180" />
        <branch name="XLXN_5(7:0)">
            <wire x2="896" y1="256" y2="256" x1="784" />
            <wire x2="896" y1="256" y2="400" x1="896" />
            <wire x2="1024" y1="400" y2="400" x1="896" />
        </branch>
        <branch name="XLXN_6(7:0)">
            <wire x2="896" y1="736" y2="736" x1="784" />
            <wire x2="896" y1="464" y2="736" x1="896" />
            <wire x2="1024" y1="464" y2="464" x1="896" />
        </branch>
        <instance x="400" y="1472" name="XLXI_6" orien="R0" />
        <branch name="mtr_a(7:0)">
            <wire x2="400" y1="1216" y2="1216" x1="240" />
        </branch>
        <iomarker fontsize="28" x="240" y="1216" name="mtr_a(7:0)" orien="R180" />
        <instance x="1776" y="656" name="XLXI_7" orien="R0" />
        <branch name="mtr_mul1(15:0)">
            <wire x2="1696" y1="400" y2="400" x1="1600" />
            <wire x2="1776" y1="400" y2="400" x1="1696" />
            <wire x2="1696" y1="240" y2="400" x1="1696" />
        </branch>
        <branch name="XLXN_9(15:0)">
            <wire x2="2208" y1="400" y2="400" x1="2160" />
            <wire x2="2208" y1="400" y2="944" x1="2208" />
            <wire x2="2288" y1="944" y2="944" x1="2208" />
        </branch>
        <branch name="XLXN_12(7:0)">
            <wire x2="1008" y1="1216" y2="1216" x1="784" />
        </branch>
        <branch name="XLXN_16(15:0)">
            <wire x2="2272" y1="1216" y2="1216" x1="2128" />
            <wire x2="2272" y1="1072" y2="1216" x1="2272" />
            <wire x2="2288" y1="1072" y2="1072" x1="2272" />
        </branch>
        <branch name="CE">
            <wire x2="304" y1="320" y2="320" x1="240" />
            <wire x2="304" y1="320" y2="800" x1="304" />
            <wire x2="400" y1="800" y2="800" x1="304" />
            <wire x2="304" y1="800" y2="1008" x1="304" />
            <wire x2="304" y1="1008" y2="1280" x1="304" />
            <wire x2="400" y1="1280" y2="1280" x1="304" />
            <wire x2="832" y1="1008" y2="1008" x1="304" />
            <wire x2="992" y1="1008" y2="1008" x1="832" />
            <wire x2="1008" y1="1008" y2="1008" x1="992" />
            <wire x2="1680" y1="1008" y2="1008" x1="1008" />
            <wire x2="1680" y1="1008" y2="1280" x1="1680" />
            <wire x2="1680" y1="1280" y2="1568" x1="1680" />
            <wire x2="2848" y1="1568" y2="1568" x1="1680" />
            <wire x2="4192" y1="1568" y2="1568" x1="2848" />
            <wire x2="1744" y1="1280" y2="1280" x1="1680" />
            <wire x2="992" y1="1008" y2="1440" x1="992" />
            <wire x2="1008" y1="1440" y2="1440" x1="992" />
            <wire x2="400" y1="320" y2="320" x1="304" />
            <wire x2="1024" y1="624" y2="624" x1="1008" />
            <wire x2="1008" y1="624" y2="1008" x1="1008" />
            <wire x2="1776" y1="464" y2="464" x1="1680" />
            <wire x2="1680" y1="464" y2="1008" x1="1680" />
            <wire x2="2944" y1="1072" y2="1072" x1="2848" />
            <wire x2="2848" y1="1072" y2="1568" x1="2848" />
            <wire x2="4192" y1="1168" y2="1568" x1="4192" />
            <wire x2="4208" y1="1168" y2="1168" x1="4192" />
        </branch>
        <instance x="2944" y="1264" name="XLXI_12" orien="R0" />
        <branch name="mtr_add(15:0)">
            <wire x2="2864" y1="1008" y2="1008" x1="2736" />
            <wire x2="2944" y1="1008" y2="1008" x1="2864" />
            <wire x2="2896" y1="784" y2="784" x1="2864" />
            <wire x2="2864" y1="784" y2="1008" x1="2864" />
        </branch>
        <instance x="3552" y="928" name="XLXI_13" orien="R0">
        </instance>
        <instance x="3072" y="1440" name="XLXI_14" orien="R0">
        </instance>
        <branch name="XLXN_21(15:0)">
            <wire x2="3552" y1="1008" y2="1008" x1="3328" />
        </branch>
        <branch name="XLXN_22(15:0)">
            <wire x2="3376" y1="1472" y2="1472" x1="3216" />
            <wire x2="3376" y1="1072" y2="1472" x1="3376" />
            <wire x2="3552" y1="1072" y2="1072" x1="3376" />
        </branch>
        <branch name="CLR">
            <wire x2="384" y1="480" y2="480" x1="240" />
            <wire x2="400" y1="480" y2="480" x1="384" />
            <wire x2="384" y1="480" y2="960" x1="384" />
            <wire x2="400" y1="960" y2="960" x1="384" />
            <wire x2="384" y1="960" y2="1072" x1="384" />
            <wire x2="384" y1="1072" y2="1440" x1="384" />
            <wire x2="400" y1="1440" y2="1440" x1="384" />
            <wire x2="1728" y1="1072" y2="1072" x1="384" />
            <wire x2="1728" y1="1072" y2="1440" x1="1728" />
            <wire x2="1744" y1="1440" y2="1440" x1="1728" />
            <wire x2="1728" y1="1440" y2="1520" x1="1728" />
            <wire x2="2816" y1="1520" y2="1520" x1="1728" />
            <wire x2="1728" y1="624" y2="1072" x1="1728" />
            <wire x2="1776" y1="624" y2="624" x1="1728" />
            <wire x2="2816" y1="1232" y2="1520" x1="2816" />
            <wire x2="2944" y1="1232" y2="1232" x1="2816" />
        </branch>
        <instance x="1744" y="1472" name="XLXI_11" orien="R0" />
        <instance x="2224" y="592" name="XLXI_17" orien="M180" />
        <branch name="XLXN_37">
            <wire x2="2288" y1="720" y2="816" x1="2288" />
        </branch>
        <iomarker fontsize="28" x="1696" y="240" name="mtr_mul1(15:0)" orien="R270" />
        <branch name="XLXN_38(15:0)">
            <wire x2="1744" y1="1216" y2="1216" x1="1584" />
        </branch>
        <iomarker fontsize="28" x="2896" y="784" name="mtr_add(15:0)" orien="R0" />
        <instance x="2288" y="1264" name="XLXI_8" orien="R0" />
        <iomarker fontsize="28" x="240" y="320" name="CE" orien="R180" />
        <iomarker fontsize="28" x="240" y="384" name="C" orien="R180" />
        <iomarker fontsize="28" x="240" y="480" name="CLR" orien="R180" />
        <branch name="XLXN_41(31:0)">
            <wire x2="4208" y1="1008" y2="1008" x1="4128" />
        </branch>
        <instance x="4208" y="928" name="XLXI_18" orien="R0">
        </instance>
        <branch name="mtr_res(31:0)">
            <wire x2="4688" y1="1008" y2="1008" x1="4496" />
        </branch>
        <iomarker fontsize="28" x="4688" y="1008" name="mtr_res(31:0)" orien="R0" />
        <instance x="400" y="512" name="XLXI_1" orien="R0" />
        <instance x="1024" y="320" name="XLXI_20" orien="R0">
        </instance>
        <branch name="ONE">
            <wire x2="2752" y1="1216" y2="1216" x1="2672" />
            <wire x2="2672" y1="1216" y2="1312" x1="2672" />
            <wire x2="2704" y1="1312" y2="1312" x1="2672" />
            <wire x2="2752" y1="1200" y2="1200" x1="2736" />
            <wire x2="2752" y1="1200" y2="1216" x1="2752" />
        </branch>
        <iomarker fontsize="28" x="2704" y="1312" name="ONE" orien="R0" />
        <branch name="C">
            <wire x2="352" y1="384" y2="384" x1="240" />
            <wire x2="352" y1="384" y2="864" x1="352" />
            <wire x2="400" y1="864" y2="864" x1="352" />
            <wire x2="352" y1="864" y2="1040" x1="352" />
            <wire x2="352" y1="1040" y2="1344" x1="352" />
            <wire x2="400" y1="1344" y2="1344" x1="352" />
            <wire x2="944" y1="1040" y2="1040" x1="352" />
            <wire x2="1632" y1="1040" y2="1040" x1="944" />
            <wire x2="1632" y1="1040" y2="1344" x1="1632" />
            <wire x2="1632" y1="1344" y2="1600" x1="1632" />
            <wire x2="2880" y1="1600" y2="1600" x1="1632" />
            <wire x2="1744" y1="1344" y2="1344" x1="1632" />
            <wire x2="944" y1="1040" y2="1376" x1="944" />
            <wire x2="944" y1="1376" y2="1632" x1="944" />
            <wire x2="3424" y1="1632" y2="1632" x1="944" />
            <wire x2="4176" y1="1632" y2="1632" x1="3424" />
            <wire x2="1008" y1="1376" y2="1376" x1="944" />
            <wire x2="400" y1="384" y2="384" x1="352" />
            <wire x2="944" y1="560" y2="1040" x1="944" />
            <wire x2="1024" y1="560" y2="560" x1="944" />
            <wire x2="1776" y1="528" y2="528" x1="1632" />
            <wire x2="1632" y1="528" y2="1040" x1="1632" />
            <wire x2="2944" y1="1136" y2="1136" x1="2880" />
            <wire x2="2880" y1="1136" y2="1600" x1="2880" />
            <wire x2="3552" y1="1168" y2="1168" x1="3424" />
            <wire x2="3424" y1="1168" y2="1632" x1="3424" />
            <wire x2="4176" y1="1136" y2="1632" x1="4176" />
            <wire x2="4208" y1="1136" y2="1136" x1="4176" />
        </branch>
        <instance x="1008" y="1136" name="XLXI_24" orien="R0">
        </instance>
        <instance x="672" y="1568" name="XLXI_25" orien="R0">
        </instance>
        <branch name="XLXN_50(7:0)">
            <wire x2="912" y1="1600" y2="1600" x1="816" />
            <wire x2="912" y1="1280" y2="1600" x1="912" />
            <wire x2="1008" y1="1280" y2="1280" x1="912" />
        </branch>
    </sheet>
</drawing>