V3 3
FL D:/FPGA/AVI_lab1a/AVI_mod1.vhd 2017/12/18.01:32:36 P.20131013
EN work/AVI_mod1 1513553695 FL D:/FPGA/AVI_lab1a/AVI_mod1.vhd \
      PB ieee/std_logic_1164 1381692176
AR work/AVI_mod1/Behavioral 1513553696 \
      FL D:/FPGA/AVI_lab1a/AVI_mod1.vhd EN work/AVI_mod1 1513553695
